{"code":"2000000","data":{"keyword":"NewJeans Ditto","suggestedQuery":"","totalCount":11,"totalPage":11,"currentPage":1,"pageSize":1,"tasteMix":{"mixYn":"N","status":"REQUIRE_LOGIN","displayMessage":"濡쒓렇?몄씠 ?꾩슂?⑸땲??"},"list":[{"type":"TRACK","style":"DEFAULT","list":[{"id":464145445,"name":"Ditto","playTime":"03:05","adultAuthYn":"N","freeYn":"N","svcFlacYn":"N","svcStreamingYn":"Y","svcDrmYn":"Y","originTrackYn":"N","dimYn":"N","audioContentYn":"N","agencyId":38146,"artistList":[{"id":405655350,"name":"NewJeans","sexCd":"N","sexCdStr":"","artistGroupTypeStr":"","actStartYmd":"","dimYn":"N","imgList":[{"size":75,"url":"https://cdn.music-flo.com/image/v2/artist/350/655/05/04/405655350_18904ba74cd9b1ea_s.jpg?1769997835839/dims/resize/75x75/quality/90"},{"size":140,"url":"https://cdn.music-flo.com/image/v2/artist/350/655/05/04/405655350_18904ba74cd9b1ea_s.jpg?1769997835839/dims/resize/140x140/quality/90"},{"size":200,"url":"https://cdn.music-flo.com/image/v2/artist/350/655/05/04/405655350_18904ba74cd9b1ea_s.jpg?1769997835839/dims/resize/200x200/quality/90"},{"size":350,"url":"https://cdn.music-flo.com/image/v2/artist/350/655/05/04/405655350_18904ba74cd9b1ea_s.jpg?1769997835839/dims/resize/350x350/quality/90"},{"size":500,"url":"https://cdn.music-flo.com/image/v2/artist/350/655/05/04/405655350_18904ba74cd9b1ea_s.jpg?1769997835839/dims/resize/500x500/quality/90"},{"size":1000,"url":"https://cdn.music-flo.com/image/v2/artist/350/655/05/04/405655350_18904ba74cd9b1ea_s.jpg?1769997835839/dims/resize/1000x1000/quality/90"}],"memberArtistList":[]}],"representationArtist":{"id":405655350,"name":"NewJeans","sexCd":"N","sexCdStr":"","artistGroupTypeStr":"","actStartYmd":"","dimYn":"N","imgList":[{"size":75,"url":"https://cdn.music-flo.com/image/v2/artist/350/655/05/04/405655350_18904ba74cd9b1ea_s.jpg?1769997835839/dims/resize/75x75/quality/90"},{"size":140,"url":"https://cdn.music-flo.com/image/v2/artist/350/655/05/04/405655350_18904ba74cd9b1ea_s.jpg?1769997835839/dims/resize/140x140/quality/90"},{"size":200,"url":"https://cdn.music-flo.com/image/v2/artist/350/655/05/04/405655350_18904ba74cd9b1ea_s.jpg?1769997835839/dims/resize/200x200/quality/90"},{"size":350,"url":"https://cdn.music-flo.com/image/v2/artist/350/655/05/04/405655350_18904ba74cd9b1ea_s.jpg?1769997835839/dims/resize/350x350/quality/90"},{"size":500,"url":"https://cdn.music-flo.com/image/v2/artist/350/655/05/04/405655350_18904ba74cd9b1ea_s.jpg?1769997835839/dims/resize/500x500/quality/90"},{"size":1000,"url":"https://cdn.music-flo.com/image/v2/artist/350/655/05/04/405655350_18904ba74cd9b1ea_s.jpg?1769997835839/dims/resize/1000x1000/quality/90"}],"memberArtistList":[]},"updateDateTime":"2026-04-01 00:21:57","fileUpdateDateTime":"2023-11-24 13:28:10","album":{"id":410940180,"title":"NewJeans 'OMG'","imgList":[{"size":75,"url":"https://cdn.music-flo.com/image/v2/album/180/940/10/04/410940180_65791c0a_s.jpg?1702435852415/dims/resize/75x75/quality/90"},{"size":140,"url":"https://cdn.music-flo.com/image/v2/album/180/940/10/04/410940180_65791c0a_s.jpg?1702435852415/dims/resize/140x140/quality/90"},{"size":200,"url":"https://cdn.music-flo.com/image/v2/album/180/940/10/04/410940180_65791c0a_s.jpg?1702435852415/dims/resize/200x200/quality/90"},{"size":350,"url":"https://cdn.music-flo.com/image/v2/album/180/940/10/04/410940180_65791c0a_s.jpg?1702435852415/dims/resize/350x350/quality/90"},{"size":500,"url":"https://cdn.music-flo.com/image/v2/album/180/940/10/04/410940180_65791c0a_s.jpg?1702435852415/dims/resize/500x500/quality/90"},{"size":1000,"url":"https://cdn.music-flo.com/image/v2/album/180/940/10/04/410940180_65791c0a_s.jpg?1702435852415/dims/resize/1000x1000/quality/90"}],"releaseYmd":"20230102"},"score":0.19238386}],"totalCount":1,"currentPage":0}]},"traceId":"SER20260401155339MwD"}
